220805_effect_of_primer_trimming
…
sample_data(phy_mut)$Sample_name <- factor(sample_data(phy_mut)$Sample_name, levels =lab)  # 18304

## how many reads per sample
# 1. no trim (before)
df_phy_notrim <- psmelt(phy_notrim)

df_phy_abun_notrim <- df_phy_notrim %>% group_by(SampleID, Sample_name, Replicate) %>% summarise(Total=sum(Abundance))

# plot usable reads
df_phy_abun_notrim

# A tibble: 39 x 4
# Groups:   SampleID, Sample_name [39]
   SampleID  Sample_name             Replicate Total
   <chr>     <fct>                       <int> <dbl>
 1 SampleA1  Barneveld2_T0                   1  4253
 2 SampleA13 Barneveld2_T0                   2  4764
 3 SampleA14 Barneveld2_T9_OH10              1  2945
 4 SampleA15 LaBaghWoods1_T0                 3  5199
 5 SampleA16 LaBaghWoods1_T9_OH8_CHL         2  3123
 6 SampleA17 PMA_Barneveld2_T9_OH10          2  3297
 7 SampleA2  Barneveld2_T9_H0_CHL            3  3507
 8 SampleA25 Barneveld2_T0                   3  5950
 9 SampleA26 Barneveld2_T9_OH10              2  3302
10 SampleA27 LaBaghWoods1_T9_H0              1  3328
# ... with 29 more rows
…
# 2. trimmed (after)
df_phy_trimmed <- psmelt(phy_trimmed)

df_phy_abun_trimmed <- df_phy_trimmed %>% group_by(SampleID, Sample_name, Replicate) %>% summarise(Total=sum(Abundance))

# plot usable reads
df_phy_abun_trimmed

# A tibble: 39 x 4
# Groups:   SampleID, Sample_name [39]
   SampleID  Sample_name             Replicate Total
   <chr>     <fct>                       <int> <dbl>
 1 SampleA1  Barneveld2_T0                   1    86
 2 SampleA13 Barneveld2_T0                   2   111
 3 SampleA14 Barneveld2_T9_OH10              1    89
 4 SampleA15 LaBaghWoods1_T0                 3    70
 5 SampleA16 LaBaghWoods1_T9_OH8_CHL         2    96
 6 SampleA17 PMA_Barneveld2_T9_OH10          2    88
 7 SampleA2  Barneveld2_T9_H0_CHL            3    66
 8 SampleA25 Barneveld2_T0                   3   227
 9 SampleA26 Barneveld2_T9_OH10              2   122
10 SampleA27 LaBaghWoods1_T9_H0              1    91
# ... with 29 more rows
…
# 2.1. merge & trimmed (after)
df_phy_mergetrimmed <- psmelt(phy_mergetrimmed)

df_phy_abun_mergetrimmed <- df_phy_mergetrimmed %>% group_by(SampleID, Sample_name, Replicate) %>% summarise(Total=sum(Abundance))

# plot usable reads
df_phy_abun_mergetrimmed

# A tibble: 39 x 4
# Groups:   SampleID, Sample_name [39]
   SampleID  Sample_name             Replicate Total
   <chr>     <fct>                       <int> <dbl>
 1 SampleA1  Barneveld2_T0                   1  4579
 2 SampleA13 Barneveld2_T0                   2  4927
 3 SampleA14 Barneveld2_T9_OH10              1  3439
 4 SampleA15 LaBaghWoods1_T0                 3  5336
 5 SampleA16 LaBaghWoods1_T9_OH8_CHL         2  3699
 6 SampleA17 PMA_Barneveld2_T9_OH10          2  3486
 7 SampleA2  Barneveld2_T9_H0_CHL            3  3908
 8 SampleA25 Barneveld2_T0                   3  6062
 9 SampleA26 Barneveld2_T9_OH10              2  3743
10 SampleA27 LaBaghWoods1_T9_H0              1  3324
# ... with 29 more rows
…
df_phy_abun_mut <- df_phy_mut %>% group_by(ReplicateID, Sample_name, Replicate) %>% summarise(Total=sum(Abundance))

# plot usable reads
df_phy_abun_mut

# A tibble: 39 x 4
# Groups:   ReplicateID, Sample_name [39]
   ReplicateID               Sample_name            Replicate  Total
   <chr>                     <fct>                      <int>  <dbl>
 1 Barneveld2_T0_R1          Barneveld2_T0                  1 35636 
 2 Barneveld2_T0_R2          Barneveld2_T0                  2 40049 
 3 Barneveld2_T0_R3          Barneveld2_T0                  3 48878.
 4 Barneveld2_T9_H0_CHL_R1   Barneveld2_T9_H0_CHL           1 46253 
 5 Barneveld2_T9_H0_CHL_R2   Barneveld2_T9_H0_CHL           2 43848.
 6 Barneveld2_T9_H0_CHL_R3   Barneveld2_T9_H0_CHL           3 29902.
 7 Barneveld2_T9_H0_R1       Barneveld2_T9_H0               1 53156 
 8 Barneveld2_T9_H0_R2       Barneveld2_T9_H0               2 40542.
 9 Barneveld2_T9_H0_R3       Barneveld2_T9_H0               3 36966.
10 Barneveld2_T9_OH10_CHL_R1 Barneveld2_T9_OH10_CHL         1 41713 
# ... with 29 more rows
…
